110	0	2	1	1	2	5.0221	0	0	16	10	1	0	1	0	483.53	0.7	0.77
110	0	2	1	1	4	15.017	0	0	51	53	1	1	2	1	640.97	0.26	0.25
110	0	2	1	1	6	26.012	0	0	42	41	0	1	6	0	733.25	0.35	0.35
110	0	2	1	1	8	35.022	0	0	15	16	0	1	1	0	755.23	0.7	0.7
110	0	2	1	1	10	44.016	0	0	45	48	0	0	2	1	1001.7	0.34	0.31
110	0	2	1	1	12	51.024	0	0	48	47	1	1	2	1	913.92	0.31	0.32
110	0	2	1	1	14	59.016	0	0	21	22	1	1	5	1	1281.6	0.64	0.6
110	0	2	1	1	16	66.024	0	0	50	48	0	0	2	1	697.7	0.27	0.31
110	0	2	1	1	18	88.015	0	0	49	52	1	1	2	1	826.37	0.31	0.26
110	0	2	1	1	20	97.009	0	0	9	10	1	0	1	0	928.82	0.77	0.77
110	0	2	1	1	22	107.02	0	0	14	18	1	0	1	0	997.61	0.72	0.66
110	0	2	1	1	24	113.01	0	0	13	17	0	0	1	1	703.59	0.72	0.68
110	0	2	1	1	26	123.02	0	0	20	19	1	1	5	1	940.41	0.65	0.66
110	0	2	1	1	28	129.01	0	0	13	8	0	0	1	1	582.35	0.72	0.78
110	0	2	1	1	30	137.02	0	0	52	48	0	0	2	1	613.34	0.26	0.31
110	0	2	1	1	32	147.01	0	0	7	14	0	1	1	0	594.72	0.79	0.72
110	0	2	1	1	34	157.01	0	0	49	50	1	1	2	1	592.24	0.31	0.27
110	0	2	1	1	36	166.02	0	0	12	14	0	1	1	0	790.09	0.76	0.72
110	0	2	1	1	38	172.01	0	0	43	53	1	1	2	1	647.95	0.34	0.25
110	0	2	1	1	40	193.02	0	0	15	8	0	0	1	1	625.14	0.7	0.78
110	0	2	1	1	42	207.02	0	0	13	11	0	0	1	1	898.03	0.72	0.77
110	0	2	1	2	2	8.0256	0	0	45	51	0	1	2	0	1161.4	0.34	0.26
110	0	2	1	2	4	14.016	0	0	12	16	0	1	1	0	739.24	0.76	0.7
110	0	2	1	2	6	21.023	0	0	14	13	1	1	1	1	675.47	0.72	0.72
110	0	2	1	2	8	34.021	0	0	8	12	1	1	1	1	677.53	0.78	0.76
110	0	2	1	2	10	42.014	0	0	17	18	1	0	1	0	1125.4	0.68	0.66
110	0	2	1	2	12	51.024	0	0	9	15	1	1	1	1	1083.1	0.77	0.7
110	0	2	1	2	14	58.016	0	0	11	7	1	0	1	0	786.91	0.77	0.79
110	0	2	1	2	16	70.028	0	0	49	47	1	1	2	1	830.5	0.31	0.32
110	0	2	1	2	18	82.025	0	0	12	11	0	0	1	1	961.64	0.76	0.77
110	0	2	1	2	20	91.019	0	0	46	53	1	1	2	1	680.2	0.33	0.25
110	0	2	1	2	22	99.028	0	0	13	9	0	0	1	1	671.21	0.72	0.77
110	0	2	1	2	24	111.02	0	0	50	51	0	0	2	1	746.47	0.27	0.26
110	0	2	1	2	26	121.02	0	0	53	49	0	0	2	1	935.93	0.25	0.31
110	0	2	1	2	28	128.03	0	0	13	16	0	0	1	1	1016	0.72	0.7
110	0	2	1	2	30	136.02	0	0	49	45	1	1	2	1	767.77	0.31	0.34
110	0	2	1	2	32	143.03	0	0	17	12	1	0	1	0	751.89	0.68	0.76
110	0	2	1	2	34	151.02	0	0	18	16	0	1	1	0	1095.5	0.66	0.7
110	0	2	1	2	36	168.02	0	0	46	50	1	1	2	1	1221.1	0.33	0.27
110	0	2	1	2	38	179.02	0	0	10	14	0	1	1	0	1161.4	0.77	0.72
110	0	2	1	2	40	188.03	0	0	11	15	1	1	1	1	647.41	0.77	0.7
110	0	2	1	2	42	197.02	0	0	56	6	0	0	4	1	853.92	0.2	0.81
110	0	2	2	1	2	5.0223	0	0	14	7	1	0	1	0	615.85	0.72	0.79
110	0	2	2	1	4	15.017	0	0	43	52	1	0	2	0	813.32	0.34	0.26
110	0	2	2	1	6	26.013	0	0	20	19	1	0	5	0	809.58	0.65	0.66
110	0	2	2	1	8	35.023	0	0	9	15	1	1	1	1	815.57	0.77	0.7
110	0	2	2	1	10	44.016	0	0	50	48	0	0	2	1	926.13	0.27	0.31
110	0	2	2	1	12	51.024	0	0	39	41	0	1	6	0	998.3	0.37	0.35
110	0	2	2	1	14	59.016	0	0	9	13	1	0	1	0	901.94	0.77	0.72
110	0	2	2	1	16	66.024	0	0	49	53	1	1	2	1	678.21	0.31	0.25
110	0	2	2	1	18	88.015	0	0	47	46	0	0	2	1	774.75	0.32	0.33
110	0	2	2	1	20	97.025	0	0	45	54	0	0	2	1	1036.7	0.34	0.25
110	0	2	2	1	22	107.02	0	0	12	8	0	1	1	0	586.17	0.76	0.78
110	0	2	2	1	24	113.03	0	0	50	51	0	1	2	0	1275.5	0.27	0.26
110	0	2	2	1	26	123.02	0	0	49	44	1	1	2	1	968.87	0.31	0.34
110	0	2	2	1	28	129.01	0	0	43	45	1	0	2	0	1267	0.34	0.34
110	0	2	2	1	30	137.02	0	0	44	54	0	0	2	1	1169.8	0.34	0.25
110	0	2	2	1	32	147.01	0	0	7	16	0	1	1	0	807.29	0.79	0.7
110	0	2	2	1	34	157.03	0	0	9	12	1	0	1	0	716.09	0.77	0.76
110	0	2	2	1	36	166.02	0	0	43	53	1	1	2	1	898.55	0.34	0.25
110	0	2	2	1	38	172.03	0	0	50	46	0	0	2	1	771.89	0.27	0.33
110	0	2	2	1	40	193.02	0	0	47	54	0	0	2	1	893.64	0.32	0.25
110	0	2	2	1	42	207.02	0	0	11	13	1	1	1	1	598.6	0.77	0.72
110	0	2	2	2	2	5.0222	0	0	16	15	1	1	1	1	1101.9	0.7	0.7
110	0	2	2	2	4	15.017	0	0	43	44	1	1	2	1	843.38	0.34	0.34
110	0	2	2	2	6	26.029	0	0	54	50	1	1	2	1	1086.9	0.25	0.27
110	0	2	2	2	8	35.023	0	0	49	45	1	1	2	1	717.6	0.31	0.34
110	0	2	2	2	10	44.016	0	0	46	52	1	1	2	1	1036.1	0.33	0.26
110	0	2	2	2	12	51.024	0	0	7	11	0	1	1	0	724.29	0.79	0.77
110	0	2	2	2	14	59.016	0	0	22	20	0	0	5	1	939.96	0.6	0.65
110	0	2	2	2	16	66.024	0	0	53	54	0	0	2	1	740.15	0.25	0.25
110	0	2	2	2	18	88.015	0	0	46	53	1	1	2	1	644.66	0.33	0.25
110	0	2	2	2	20	97.025	0	0	16	13	1	1	1	1	1258.7	0.7	0.72
110	0	2	2	2	22	107.02	0	0	43	47	1	1	2	1	1072.1	0.34	0.32
110	0	2	2	2	24	113.03	0	0	14	18	1	0	1	0	857.33	0.72	0.66
110	0	2	2	2	26	123.02	0	0	8	15	1	1	1	1	654.85	0.78	0.7
110	0	2	2	2	28	129.03	0	0	10	9	0	0	1	1	880.08	0.77	0.77
110	0	2	2	2	30	137.02	0	0	52	48	0	0	2	1	687.78	0.26	0.31
110	0	2	2	2	32	147.01	0	0	42	40	0	1	6	0	1189.3	0.35	0.37
110	0	2	2	2	34	157.03	0	0	52	49	0	0	2	1	1010	0.26	0.31
110	0	2	2	2	36	166.02	0	0	47	51	0	0	2	1	904.51	0.32	0.26
110	0	2	2	2	38	172.03	0	0	47	49	0	0	2	1	809.81	0.32	0.31
110	0	2	2	2	40	193.02	0	0	48	44	1	1	2	1	675.58	0.31	0.34
110	0	2	2	2	42	207.02	0	0	46	44	1	1	2	1	1052.5	0.33	0.34
