122	0	2	1	1	2	5.02	0	0	12	9	0	1	1	0	965.36	0.73	0.77
122	0	2	1	1	4	15.031	0	0	54	52	1	0	2	0	786.05	0.22	0.22
122	0	2	1	1	6	26.027	0	0	45	43	0	0	2	1	814.36	0.28	0.32
122	0	2	1	1	8	35.02	0	0	8	12	1	0	1	0	852.95	0.79	0.73
122	0	2	1	1	10	44.031	0	0	45	49	0	1	2	0	1114.8	0.28	0.26
122	0	2	1	1	12	51.022	0	0	54	50	1	0	2	0	907.68	0.22	0.25
122	0	2	1	1	14	59.031	0	0	14	7	1	1	1	1	938.59	0.72	0.81
122	0	2	1	1	16	66.022	0	0	8	7	1	0	1	0	891.44	0.79	0.81
122	0	2	1	1	18	88.03	0	0	56	6	0	0	4	1	1131.4	0.16	0.81
122	0	2	1	1	20	97.023	0	0	55	5	0	0	4	1	1466	0.18	0.83
122	0	2	1	1	22	107.02	0	0	46	53	1	1	2	1	767.33	0.28	0.22
122	0	2	1	1	24	113.02	0	0	14	18	1	1	1	1	736.7	0.72	0.68
122	0	2	1	1	26	123.02	0	0	45	48	0	1	2	0	990.12	0.28	0.28
122	0	2	1	1	28	129.03	0	0	19	21	0	1	5	0	735.35	0.67	0.65
122	0	2	1	1	30	137.02	0	0	16	10	1	0	1	0	927.02	0.69	0.76
122	0	2	1	1	32	147.03	0	0	17	10	1	1	1	1	1075.8	0.68	0.76
122	0	2	1	1	34	157.02	0	0	16	18	1	1	1	1	593.31	0.69	0.68
122	0	2	1	1	36	166.02	0	0	46	47	1	1	2	1	983.81	0.28	0.28
122	0	2	1	1	38	172.02	0	0	12	11	0	0	1	1	801.11	0.73	0.75
122	0	2	1	1	40	193.03	0	0	13	11	0	0	1	1	802.16	0.72	0.75
122	0	2	1	1	42	207.03	0	0	52	49	0	1	2	0	1115.1	0.22	0.26
122	0	2	1	2	2	7.0078	0	0	8	10	1	0	1	0	918.12	0.79	0.76
122	0	2	1	2	4	18.003	0	0	12	16	0	1	1	0	802.77	0.73	0.69
122	0	2	1	2	6	28.015	0	0	7	9	0	1	1	0	1175.2	0.81	0.77
122	0	2	1	2	8	43.015	0	0	17	12	1	0	1	0	1127	0.68	0.73
122	0	2	1	2	10	50.006	0	0	11	7	1	0	1	0	1135.9	0.75	0.81
122	0	2	1	2	12	58.015	0	0	17	15	1	1	1	1	1278.8	0.68	0.71
122	0	2	1	2	14	71.013	0	0	44	54	0	1	2	0	848.99	0.32	0.22
122	0	2	1	2	16	79.005	0	0	10	9	0	0	1	1	1344.6	0.76	0.77
122	0	2	1	2	18	88.015	0	0	48	47	1	1	2	1	982.56	0.28	0.28
122	0	2	1	2	20	97.009	0	0	51	45	1	1	2	1	1125.1	0.24	0.28
122	0	2	1	2	22	107	0	0	8	13	1	1	1	1	898.79	0.79	0.72
122	0	2	1	2	24	113.01	0	0	42	40	0	1	6	0	739.76	0.33	0.35
122	0	2	1	2	26	129.01	0	0	44	48	0	0	2	1	906.52	0.32	0.28
122	0	2	1	2	28	139.01	0	0	53	43	0	0	2	1	887.92	0.22	0.32
122	0	2	1	2	30	149.02	0	0	14	13	1	1	1	1	876.73	0.72	0.72
122	0	2	1	2	32	158.01	0	0	46	52	1	1	2	1	659.26	0.28	0.22
122	0	2	1	2	34	169.01	0	0	50	49	0	1	2	0	1135.6	0.25	0.26
122	0	2	1	2	36	176.01	0	0	53	49	0	0	2	1	671.74	0.22	0.26
122	0	2	1	2	38	182	0	0	14	15	1	1	1	1	801.63	0.72	0.71
122	0	2	1	2	40	190.01	0	0	44	49	0	1	2	0	1160.7	0.32	0.26
122	0	2	1	2	42	205.01	0	0	18	8	0	1	1	0	848.49	0.68	0.79
122	0	2	2	1	2	5.0223	0	0	8	13	1	1	1	1	977.63	0.79	0.72
122	0	2	2	1	4	15.017	0	0	44	48	0	0	2	1	935.17	0.32	0.28
122	0	2	2	1	6	26.012	0	0	14	7	1	0	1	0	731.52	0.72	0.81
122	0	2	2	1	8	35.023	0	0	9	18	1	1	1	1	729.37	0.77	0.68
122	0	2	2	1	10	44.016	0	0	51	50	1	0	2	0	983.93	0.24	0.25
122	0	2	2	1	12	51.024	0	0	9	7	1	1	1	1	1152.1	0.77	0.81
122	0	2	2	1	14	59.016	0	0	47	54	0	1	2	0	967.78	0.28	0.22
122	0	2	2	1	16	66.024	0	0	52	48	0	0	2	1	823.92	0.22	0.28
122	0	2	2	1	18	88.015	0	0	53	48	0	0	2	1	936.53	0.22	0.28
122	0	2	2	1	20	97.026	0	0	14	18	1	1	1	1	854.4	0.72	0.68
122	0	2	2	1	22	107.02	0	0	48	50	1	1	2	1	1331.8	0.28	0.25
122	0	2	2	1	24	113.01	0	0	8	10	1	1	1	1	846.1	0.79	0.76
122	0	2	2	1	26	123.02	0	0	15	14	0	0	1	1	826.66	0.71	0.72
122	0	2	2	1	28	129.01	0	0	53	54	0	999	2	999	9.99e+05	0.22	0.22
122	0	2	2	1	30	137.02	0	0	39	41	0	1	6	0	731.6	0.35	0.34
122	0	2	2	1	32	147.01	0	0	45	48	0	1	2	0	648.96	0.28	0.28
122	0	2	2	1	34	157.01	0	0	7	16	0	1	1	0	838.73	0.81	0.69
122	0	2	2	1	36	166.02	0	0	21	22	1	0	5	0	644.39	0.65	0.64
122	0	2	2	1	38	172.01	0	0	44	51	0	1	2	0	942.59	0.32	0.24
122	0	2	2	1	40	193.02	0	0	15	17	0	1	1	0	1343.3	0.71	0.68
122	0	2	2	1	42	207.02	0	0	7	11	0	0	1	1	783.14	0.81	0.75
122	0	2	2	2	2	5.0218	0	0	53	49	0	0	2	1	700.91	0.22	0.26
122	0	2	2	2	4	15.017	0	0	44	49	0	0	2	1	818.06	0.32	0.26
122	0	2	2	2	6	26.012	0	0	11	18	1	1	1	1	742.33	0.75	0.68
122	0	2	2	2	8	35.006	0	0	45	51	0	1	2	0	725.11	0.28	0.24
122	0	2	2	2	10	44.016	0	0	13	16	0	1	1	0	802.8	0.72	0.69
122	0	2	2	2	12	51.007	0	0	15	9	0	0	1	1	1123.9	0.71	0.77
122	0	2	2	2	14	59.016	0	0	14	12	1	1	1	1	730.66	0.72	0.73
122	0	2	2	2	16	66.007	0	0	8	12	1	1	1	1	755.41	0.79	0.73
122	0	2	2	2	18	88.015	0	0	47	48	0	1	2	0	971.49	0.28	0.28
122	0	2	2	2	20	97.042	0	0	21	19	1	0	5	0	936.59	0.65	0.67
122	0	2	2	2	22	107.02	0	0	10	17	0	1	1	0	1262.8	0.76	0.68
122	0	2	2	2	24	113.01	0	0	9	10	1	0	1	0	1272.7	0.77	0.76
122	0	2	2	2	26	123.02	0	0	54	50	1	0	2	0	997.49	0.22	0.25
122	0	2	2	2	28	129.03	0	0	53	46	0	0	2	1	910.79	0.22	0.28
122	0	2	2	2	30	137.02	0	0	44	46	0	0	2	1	1174.4	0.32	0.28
122	0	2	2	2	32	147.01	0	0	55	6	0	0	4	1	859.92	0.18	0.81
122	0	2	2	2	34	157.01	0	0	11	15	1	1	1	1	793.3	0.75	0.71
122	0	2	2	2	36	166.02	0	0	52	49	0	1	2	0	1055.2	0.22	0.26
122	0	2	2	2	38	172.01	0	0	49	45	1	0	2	0	1041.2	0.26	0.28
122	0	2	2	2	40	193.02	0	0	43	45	1	0	2	0	1266.3	0.32	0.28
122	0	2	2	2	42	207.02	0	0	17	7	1	1	1	1	1067.2	0.68	0.81
