103	0	1	1	1	2	8.0085	0	0	8	7	0	0	1	1	663.89	0.78	0.8
103	0	1	1	1	4	14.015	0	0	54	45	0	0	2	1	912.93	0.18	0.33
103	0	1	1	1	6	21.023	0	0	47	51	1	1	2	1	904.99	0.32	0.25
103	0	1	1	1	8	34.021	0	0	53	51	1	1	2	1	1267.2	0.22	0.25
103	0	1	1	1	10	42.014	0	0	13	16	1	0	1	0	1314.8	0.76	0.65
103	0	1	1	1	12	51.024	0	0	56	6	0	0	4	1	968.59	0.18	0.81
103	0	1	1	1	14	58.015	0	0	44	49	1	0	2	0	1177.4	0.33	0.31
103	0	1	1	1	16	70.012	0	0	7	11	1	1	1	1	684.66	0.8	0.77
103	0	1	1	1	18	82.008	0	0	46	50	0	1	2	0	1232	0.33	0.3
103	0	1	1	1	20	91.019	0	0	48	44	0	1	2	0	1421.8	0.31	0.33
103	0	1	1	1	22	99.011	0	0	50	48	1	1	2	1	1253.5	0.3	0.31
103	0	1	1	1	24	111.02	0	0	11	10	0	1	1	0	831.92	0.77	0.78
103	0	1	1	1	26	121.02	0	0	18	8	1	0	1	0	917.33	0.63	0.78
103	0	1	1	1	28	128.01	0	0	52	48	1	1	2	1	1382.2	0.24	0.31
103	0	1	1	1	30	136.02	0	0	46	45	0	1	2	0	1141.2	0.33	0.33
103	0	1	1	1	32	143.01	0	0	11	15	0	0	1	1	974.06	0.77	0.7
103	0	1	1	1	34	151.02	0	0	45	49	1	0	2	0	1029	0.33	0.31
103	0	1	1	1	36	168.02	0	0	21	19	0	1	5	0	1026.6	0.63	0.63
103	0	1	1	1	38	179.02	0	0	46	47	0	0	2	1	902.92	0.33	0.32
103	0	1	1	1	40	188.01	0	0	9	10	0	1	1	0	933.48	0.78	0.78
103	0	1	1	1	42	197.02	0	0	39	41	1	0	6	0	1003.4	0.37	0.36
103	0	1	1	2	2	7.0077	0	0	17	18	0	1	1	0	990.06	0.63	0.63
103	0	1	1	2	4	18.003	0	0	7	9	1	0	1	0	1114.7	0.8	0.78
103	0	1	1	2	6	28.015	0	0	13	8	1	1	1	1	895.19	0.76	0.78
103	0	1	1	2	8	43.015	0	0	21	22	0	0	5	1	918.98	0.63	0.61
103	0	1	1	2	10	50.006	0	0	50	43	1	1	2	1	1247.8	0.3	0.35
103	0	1	1	2	12	58.015	0	0	10	8	1	1	1	1	1318.8	0.78	0.78
103	0	1	1	2	14	71.013	0	0	10	14	1	1	1	1	1200.9	0.78	0.72
103	0	1	1	2	16	79.005	0	0	5	55	1	1	4	1	1008.5	0.81	0.18
103	0	1	1	2	18	88.015	0	0	11	12	0	0	1	1	950.49	0.77	0.76
103	0	1	1	2	20	97.009	0	0	17	7	0	0	1	1	885.05	0.63	0.8
103	0	1	1	2	22	107	0	0	41	42	0	1	6	0	1242.8	0.36	0.35
103	0	1	1	2	24	113.01	0	0	48	45	0	999	2	999	9.99e+05	0.31	0.33
103	0	1	1	2	26	129.01	0	0	14	18	0	1	1	0	1098.5	0.72	0.63
103	0	1	1	2	28	139.01	0	0	46	52	0	1	2	0	1015.9	0.33	0.24
103	0	1	1	2	30	149.02	0	0	14	7	0	0	1	1	788.64	0.72	0.8
103	0	1	1	2	32	158.01	0	0	50	49	1	1	2	1	1059.2	0.3	0.31
103	0	1	1	2	34	169.01	0	0	12	14	1	1	1	1	911.54	0.76	0.72
103	0	1	1	2	36	176.01	0	0	46	53	0	1	2	0	1359.7	0.33	0.22
103	0	1	1	2	38	182	0	0	47	48	1	1	2	1	1066	0.32	0.31
103	0	1	1	2	40	190.01	0	0	44	54	1	1	2	1	1152.7	0.33	0.18
103	0	1	1	2	42	205.01	0	0	50	54	1	0	2	0	1032.5	0.3	0.18
103	0	1	2	1	2	5.0223	0	0	20	22	0	1	5	0	1122.1	0.63	0.61
103	0	1	2	1	4	16.018	0	0	10	17	1	1	1	1	934.55	0.78	0.63
103	0	1	2	1	6	25.011	0	0	51	47	0	0	2	1	973.04	0.25	0.32
103	0	1	2	1	8	32.019	0	0	44	48	1	0	2	0	1277.2	0.33	0.31
103	0	1	2	1	10	40.012	0	0	8	12	0	1	1	0	1156.9	0.78	0.76
103	0	1	2	1	12	49.022	0	0	52	46	1	0	2	0	962.74	0.24	0.33
103	0	1	2	1	14	56.013	0	0	17	18	0	0	1	1	1123.6	0.63	0.63
103	0	1	2	1	16	66.024	0	0	12	11	1	0	1	0	880.37	0.76	0.77
103	0	1	2	1	18	76.019	0	0	54	50	0	1	2	0	869.78	0.18	0.3
103	0	1	2	1	20	86.013	0	0	48	53	0	0	2	1	827.25	0.31	0.22
103	0	1	2	1	22	96.024	0	0	43	44	0	0	2	1	752.05	0.35	0.33
103	0	1	2	1	24	108.02	0	0	21	19	0	1	5	0	1003.2	0.63	0.63
103	0	1	2	1	26	118.02	0	0	16	10	0	1	1	0	1088.7	0.65	0.78
103	0	1	2	1	28	124.02	0	0	53	51	1	1	2	1	1082	0.22	0.25
103	0	1	2	1	30	134.02	0	0	46	50	0	1	2	0	1223.4	0.33	0.3
103	0	1	2	1	32	148.02	0	0	16	7	0	0	1	1	824.37	0.65	0.8
103	0	1	2	1	34	160.01	0	0	9	15	0	1	1	0	1395.5	0.78	0.7
103	0	1	2	1	36	170.02	0	0	45	46	1	0	2	0	1336.4	0.33	0.33
103	0	1	2	1	38	181.02	0	0	18	9	1	0	1	0	820.6	0.63	0.78
103	0	1	2	1	40	198.02	0	0	5	56	1	1	4	1	810.2	0.81	0.18
103	0	1	2	1	42	209.02	0	0	47	54	1	1	2	1	1062.5	0.32	0.18
103	0	1	2	2	2	5.0055	0	0	46	44	0	1	2	0	1337.2	0.33	0.33
103	0	1	2	2	4	16.018	0	0	49	44	0	999	2	999	9.99e+05	0.31	0.33
103	0	1	2	2	6	25.011	0	0	19	20	1	0	5	0	1275.3	0.63	0.63
103	0	1	2	2	8	32.002	0	0	12	9	1	0	1	0	924.39	0.76	0.78
103	0	1	2	2	10	40.012	0	0	55	6	0	0	4	1	755.17	0.18	0.81
103	0	1	2	2	12	49.005	0	0	45	51	1	0	2	0	1257.7	0.33	0.25
103	0	1	2	2	14	56.013	0	0	17	7	0	0	1	1	977.94	0.63	0.8
103	0	1	2	2	16	66.007	0	0	51	52	0	1	2	0	1223.4	0.25	0.24
103	0	1	2	2	18	76.002	0	0	12	14	1	1	1	1	1309.1	0.76	0.72
103	0	1	2	2	20	86.013	0	0	43	52	0	0	2	1	1137.6	0.35	0.24
103	0	1	2	2	22	96.008	0	0	56	6	0	0	4	1	743.08	0.18	0.81
103	0	1	2	2	24	108	0	0	16	12	0	0	1	1	954.19	0.65	0.76
103	0	1	2	2	26	118.02	0	0	7	11	1	0	1	0	1151	0.8	0.77
103	0	1	2	2	28	124.01	0	0	11	18	0	1	1	0	1120.9	0.77	0.63
103	0	1	2	2	30	134.02	0	0	45	43	1	1	2	1	853.76	0.33	0.35
103	0	1	2	2	32	148.02	0	0	54	53	0	0	2	1	1086.7	0.18	0.22
103	0	1	2	2	34	160.01	0	0	13	14	1	1	1	1	1089.9	0.76	0.72
103	0	1	2	2	36	170.01	0	0	53	49	1	1	2	1	1095.3	0.22	0.31
103	0	1	2	2	38	181	0	0	47	43	1	1	2	1	1067.9	0.32	0.35
103	0	1	2	2	40	198.01	0	0	21	22	0	1	5	0	889.24	0.63	0.61
103	0	1	2	2	42	209.02	0	0	49	47	0	0	2	1	724.92	0.31	0.32
