102	0	2	1	1	2	5.0221	0	0	11	10	1	1	1	1	824.59	0.77	0.78
102	0	2	1	1	4	16.018	0	0	15	17	0	0	1	1	901.02	0.66	0.64
102	0	2	1	1	6	25.011	0	0	11	13	1	0	1	0	675.8	0.77	0.76
102	0	2	1	1	8	32.019	0	0	14	12	1	0	1	0	723.73	0.69	0.76
102	0	2	1	1	10	40.014	0	0	12	8	0	1	1	0	752.74	0.76	0.79
102	0	2	1	1	12	49.021	0	0	13	9	0	0	1	1	769.31	0.76	0.79
102	0	2	1	1	14	56.013	0	0	21	19	1	0	5	0	1170.1	0.58	0.61
102	0	2	1	1	16	66.024	0	0	14	10	1	1	1	1	918.96	0.69	0.78
102	0	2	1	1	18	76.018	0	0	42	40	0	0	6	1	1348.4	0.37	0.39
102	0	2	1	1	20	86.013	0	0	43	44	1	1	2	1	1153.9	0.36	0.35
102	0	2	1	1	22	96.024	0	0	48	47	1	1	2	1	1462.7	0.29	0.31
102	0	2	1	1	24	108.02	0	0	17	12	1	1	1	1	1225.9	0.64	0.76
102	0	2	1	1	26	118.02	0	0	7	8	0	0	1	1	823.31	0.8	0.79
102	0	2	1	1	28	124.02	0	0	50	48	0	1	2	0	1080.6	0.25	0.29
102	0	2	1	1	30	134.02	0	0	44	48	0	1	2	0	1094.2	0.35	0.29
102	0	2	1	1	32	148.02	0	0	52	51	0	1	2	0	1383.1	0.25	0.25
102	0	2	1	1	34	160.01	0	0	45	43	0	0	2	1	938.3	0.32	0.36
102	0	2	1	1	36	170.02	0	0	52	54	0	0	2	1	1431.2	0.25	0.22
102	0	2	1	1	38	181.02	0	0	56	6	0	0	4	1	891.4	0.18	0.82
102	0	2	1	1	40	198.02	0	0	8	13	1	0	1	0	673.09	0.79	0.76
102	0	2	1	1	42	209.02	0	0	43	53	1	0	2	0	813.4	0.36	0.23
102	0	2	1	2	2	7.0074	0	0	49	45	1	0	2	0	1073.9	0.28	0.32
102	0	2	1	2	4	18.02	0	0	50	54	0	1	2	0	981.24	0.25	0.22
102	0	2	1	2	6	28.031	0	0	16	13	1	1	1	1	650.08	0.65	0.76
102	0	2	1	2	8	43.015	0	0	9	18	1	1	1	1	538.6	0.79	0.61
102	0	2	1	2	10	50.023	0	0	47	43	0	0	2	1	986.71	0.31	0.36
102	0	2	1	2	12	58.015	0	0	51	50	1	0	2	0	882.47	0.25	0.25
102	0	2	1	2	14	71.013	0	0	16	7	1	1	1	1	940.61	0.65	0.8
102	0	2	1	2	16	79.022	0	0	39	41	0	1	6	0	987.64	0.4	0.38
102	0	2	1	2	18	88.015	0	0	43	52	1	1	2	1	914.22	0.36	0.25
102	0	2	1	2	20	97.008	0	0	8	15	1	1	1	1	625.03	0.79	0.66
102	0	2	1	2	22	107.02	0	0	22	20	0	0	5	1	1053.6	0.58	0.59
102	0	2	1	2	24	113.01	0	0	11	15	1	1	1	1	935.58	0.77	0.66
102	0	2	1	2	26	129.01	0	0	9	7	1	1	1	1	502.35	0.79	0.8
102	0	2	1	2	28	139.02	0	0	10	8	0	0	1	1	635.08	0.78	0.79
102	0	2	1	2	30	149.02	0	0	6	55	1	1	4	1	608.56	0.82	0.2
102	0	2	1	2	32	158.01	0	0	16	15	1	1	1	1	727.16	0.65	0.66
102	0	2	1	2	34	169.02	0	0	9	15	1	1	1	1	562.79	0.79	0.66
102	0	2	1	2	36	176.01	0	0	7	14	0	0	1	1	1003.7	0.8	0.69
102	0	2	1	2	38	182.02	0	0	47	46	0	0	2	1	1084.9	0.31	0.31
102	0	2	1	2	40	190.01	0	0	46	52	1	1	2	1	644.69	0.31	0.25
102	0	2	1	2	42	205.01	0	0	39	40	0	0	6	1	1100.6	0.4	0.39
102	0	2	2	1	2	5.022	0	0	14	10	1	1	1	1	1296.1	0.69	0.78
102	0	2	2	1	4	16.018	0	0	43	47	1	1	2	1	1004.4	0.36	0.31
102	0	2	2	1	6	25.011	0	0	47	51	0	1	2	0	771.2	0.31	0.25
102	0	2	2	1	8	32.019	0	0	45	46	0	1	2	0	995.13	0.32	0.31
102	0	2	2	1	10	40.011	0	0	49	50	1	1	2	1	1003.2	0.28	0.25
102	0	2	2	1	12	49.021	0	0	53	51	0	1	2	0	848.78	0.23	0.25
102	0	2	2	1	14	56.012	0	0	48	44	1	0	2	0	1345.6	0.29	0.35
102	0	2	2	1	16	66.024	0	0	52	48	0	0	2	1	726.44	0.25	0.29
102	0	2	2	1	18	76.035	0	0	48	53	1	0	2	0	1107.2	0.29	0.23
102	0	2	2	1	20	86.013	0	0	47	49	0	0	2	1	969.39	0.31	0.28
102	0	2	2	1	22	96.024	0	0	53	49	0	1	2	0	726.1	0.23	0.28
102	0	2	2	1	24	108.02	0	0	54	50	1	1	2	1	1249.4	0.22	0.25
102	0	2	2	1	26	118.02	0	0	9	13	1	1	1	1	510.86	0.79	0.76
102	0	2	2	1	28	124.02	0	0	11	15	1	1	1	1	696.19	0.77	0.66
102	0	2	2	1	30	134.02	0	0	52	49	0	0	2	1	701.58	0.25	0.28
102	0	2	2	1	32	148.02	0	0	12	8	0	0	1	1	854.64	0.76	0.79
102	0	2	2	1	34	160.01	0	0	20	19	1	0	5	0	857.82	0.59	0.61
102	0	2	2	1	36	170.02	0	0	42	40	0	0	6	1	990.56	0.37	0.39
102	0	2	2	1	38	181.02	0	0	13	17	0	1	1	0	522.94	0.76	0.64
102	0	2	2	1	40	198.02	0	0	54	52	1	1	2	1	888.65	0.22	0.25
102	0	2	2	1	42	209.02	0	0	7	16	0	0	1	1	652.91	0.8	0.65
102	0	2	2	2	2	7.0078	0	0	8	18	1	1	1	1	732.13	0.79	0.61
102	0	2	2	2	4	18.02	0	0	20	22	1	1	5	1	1167.8	0.59	0.58
102	0	2	2	2	6	28.015	0	0	52	51	0	0	2	1	733.23	0.25	0.25
102	0	2	2	2	8	43.015	0	0	22	21	0	0	5	1	1061.1	0.58	0.58
102	0	2	2	2	10	50.006	0	0	11	18	1	0	1	0	638.26	0.77	0.61
102	0	2	2	2	12	58.015	0	0	50	46	0	1	2	0	1173	0.25	0.31
102	0	2	2	2	14	71.013	0	0	17	15	1	1	1	1	911.1	0.64	0.66
102	0	2	2	2	16	79.005	0	0	46	44	1	1	2	1	679.16	0.31	0.35
102	0	2	2	2	18	88.015	0	0	16	13	1	0	1	0	836.73	0.65	0.76
102	0	2	2	2	20	97.009	0	0	47	54	0	1	2	0	1243.4	0.31	0.22
102	0	2	2	2	22	107.02	0	0	51	44	1	0	2	0	1224.1	0.25	0.35
102	0	2	2	2	24	113.01	0	0	12	9	0	0	1	1	546.05	0.76	0.79
102	0	2	2	2	26	129.01	0	0	49	44	1	0	2	0	976.78	0.28	0.35
102	0	2	2	2	28	139.01	0	0	13	14	0	1	1	0	614.6	0.76	0.69
102	0	2	2	2	30	149.02	0	0	48	47	1	0	2	0	803.16	0.29	0.31
102	0	2	2	2	32	158.01	0	0	8	7	1	1	1	1	785.71	0.79	0.8
102	0	2	2	2	34	169.01	0	0	51	50	1	0	2	0	718.32	0.25	0.25
102	0	2	2	2	36	176.01	0	0	5	56	1	1	4	1	838.25	0.87	0.18
102	0	2	2	2	38	182.02	0	0	39	40	0	0	6	1	991.56	0.4	0.39
102	0	2	2	2	40	190.01	0	0	15	9	0	0	1	1	479.15	0.66	0.79
102	0	2	2	2	42	205.01	0	0	45	49	0	0	2	1	855.03	0.32	0.28
