101 1 2 0 1 0.69563
101 5 2 1 1 0.87843
101 7 1 1 1 0.95143
101 11 2 0 1 0.88041
101 13 2 0 0 0.85493
101 15 2 1 0 0.93807
101 17 2 0 0 0.87774
101 19 2 0 1 0.79748
101 21 1 0 1 0.31537
101 23 2 1 1 1.123
101 25 1 0 1 0.9628
101 29 1 1 1 1.0885
101 31 2 1 1 1.4276
101 33 2 1 0 1.1208
101 37 1 0 1 1.0328
101 39 2 1 0 0.96903
101 41 1 1 1 0.66245
101 1 2 1 0 0.82705
101 3 2 0 1 1.436
101 5 1 1 1 0.98311
101 7 2 1 0 1.0451
101 11 1 1 1 1.0836
101 13 1 1 1 0.76121
101 15 2 0 1 0.97945
101 19 1 0 1 0.89652
101 21 1 0 1 0.80068
101 23 1 0 1 0.84726
101 25 2 0 0 1.4005
101 29 1 0 1 0.90103
101 33 1 0 1 0.85164
101 37 2 1 0 1.0717
101 39 1 1 1 0.87377
101 41 2 1 0 1.0086
101 3 1 1 1 0.95752
101 5 2 1 1 0.97238
101 7 1 0 0 1.355
101 9 2 0 1 0.93337
101 11 2 0 1 0.92291
101 13 1 0 1 0.93743
101 15 2 0 1 0.84957
101 17 2 0 1 0.67567
101 19 1 0 0 1.0274
101 21 1 0 1 0.82298
101 23 1 0 1 0.67756
101 25 1 1 1 0.99281
101 29 2 1 0 0.89443
101 31 2 1 1 1.2885
101 35 1 1 1 0.3056
101 37 1 1 1 0.6471
101 39 2 1 1 0.56116
101 41 1 0 0 0.70386
101 1 2 0 1 0.86361
101 3 1 1 1 1.0563
101 5 1 0 0 0.74787
101 7 2 1 0 1.0975
101 9 2 1 0 1.2858
101 11 2 0 1 0.8471
101 13 1 0 1 0.55762
101 15 2 1 1 1.1989
101 17 1 0 1 1.1153
101 19 2 0 0 0.79633
101 23 2 1 0 0.972
101 25 1 1 1 0.80498
101 27 1 1 0 0.70684
101 29 1 1 0 0.4015
101 31 1 1 1 1.0663
101 33 1 0 1 0.66415
101 35 1 1 0 0.69148
101 37 1 0 1 1.2675
101 41 1 1 1 0.79636
